{
  "build": {
    "beforeBuildCommand": "",
    "beforeDevCommand": "",
    "frontendDist": "frontend_build",
    "devUrl": "http://localhost:3000"
  },
  "bundle": {
    "active": true,
    "category": "DeveloperTool",
    "copyright": "",
    "targets": "all",
    "externalBin": [],
    "icon": [
      "icons/32x32.png",
      "icons/128x128.png",
      "icons/128x128@2x.png",
      "icons/icon.icns",
      "icons/icon.ico"
    ],
    "windows": {
      "certificateThumbprint": null,
      "digestAlgorithm": "sha256",
      "timestampUrl": ""
    },
    "longDescription": "",
    "macOS": {
      "entitlements": null,
      "exceptionDomain": "",
      "frameworks": [],
      "providerShortName": null,
      "signingIdentity": null
    },
    "resources": [],
    "shortDescription": "",
    "linux": {
      "deb": {
        "depends": []
      }
    }
  },
  "productName": "modeller",
  "version": "0.1.0",
  "identifier": "com.pezna.modeller",
  "app": {
    "windows": [
      {
        "fullscreen": false,
        "height": 1080,
        "resizable": true,
        "title": "Pezna Modeller",
        "width": 1520,
        "x": 1170,
        "y": 500
      }
    ],
    "security": {
      "csp": null
    }
  }
}